{"content":[{"id":1,"name":"Escola A","identifier":"NWS","isActive":true},{"id":2,"name":"Escola B","identifier":"ESCOB","isActive":true},{"id":3,"name":"Escola C","identifier":"ESCC","isActive":true},{"id":4,"name":"Escola D","identifier":"ESCD","isActive":true},{"id":5,"name":"Escola E","identifier":"ESCE","isActive":true}],"pageable":{"sort":{"sorted":false,"unsorted":true,"empty":true},"pageNumber":0,"pageSize":5,"offset":0,"paged":true,"unpaged":false},"last":false,"totalPages":3,"totalElements":12,"first":true,"size":5,"number":0,"sort":{"sorted":false,"unsorted":true,"empty":true},"numberOfElements":5,"empty":false}
